create table IPJ.T_AFIP_LOCALIDADES_TMP
(
  ultima_actualizacion VARCHAR2(30),
  fecha_baja           VARCHAR2(30),
  cp                   VARCHAR2(10),
  id_provincia         VARCHAR2(10),
  provincia            VARCHAR2(100),
  id_localidad         VARCHAR2(50),
  localidad            VARCHAR2(500)
)
tablespace CBA1_DATA
  pctfree 10
  initrans 1
  maxtrans 255
  storage
  (
    initial 64K
    next 64K
    minextents 1
    maxextents unlimited
  )
compress;

