create table IPJ.T_DENUNCIANTES
(
  id_tramite_ipj NUMBER(10) not null,
  id_legajo      NUMBER(10) not null,
  id_integrante  NUMBER(10) not null
)
tablespace CBA1_DATA
  pctfree 10
  initrans 1
  maxtrans 255
  storage
  (
    initial 64K
    next 1M
    minextents 1
    maxextents unlimited
  )
compress;
alter table IPJ.T_DENUNCIANTES
  add constraint PK_DENUNCIANTES primary key (ID_TRAMITE_IPJ, ID_LEGAJO, ID_INTEGRANTE)
  using index 
  tablespace CBA1_IDX
  pctfree 10
  initrans 2
  maxtrans 255
  storage
  (
    initial 64K
    next 1M
    minextents 1
    maxextents unlimited
  );

