create table IPJ.T_ENTIDADES_FIDUCIARIOS
(
  id_entidad_fiduciario       NUMBER(15) not null,
  id_tramite_ipj              NUMBER(10) not null,
  id_legajo                   NUMBER(15) not null,
  id_integrante               NUMBER(10),
  id_legajo_emp               NUMBER(15),
  cuit_empresa                VARCHAR2(20),
  n_empresa                   VARCHAR2(250),
  id_tipo_entidad             NUMBER(10),
  matricula                   VARCHAR2(50),
  folio                       VARCHAR2(20),
  anio                        NUMBER(10),
  en_formacion                CHAR(1),
  fec_acta                    DATE,
  certificacion_contable      CHAR(1),
  matricula_certificante      VARCHAR2(20),
  id_vin_empresa              NUMBER(20),
  persona_expuesta            CHAR(1),
  tipo_participacion          VARCHAR2(50),
  fecha_inicio                DATE,
  fecha_fin                   DATE,
  borrador                    CHAR(1),
  fecha_poder                 DATE,
  id_integrante_representante NUMBER(10),
  id_tipo_repres              NUMBER(5),
  preres_persona_expuesta     CHAR(1)
)
tablespace CBA1_DATA
  pctfree 10
  initrans 1
  maxtrans 255
  storage
  (
    initial 64K
    next 64K
    minextents 1
    maxextents unlimited
  )
compress;
create index IPJ.IDX_ENTIDAD_FIDUCIARIO on IPJ.T_ENTIDADES_FIDUCIARIOS (ID_ENTIDAD_FIDUCIARIO, ID_TRAMITE_IPJ, ID_LEGAJO)
  tablespace CBA1_IDX
  pctfree 10
  initrans 2
  maxtrans 255
  storage
  (
    initial 64K
    next 64K
    minextents 1
    maxextents unlimited
  );
alter table IPJ.T_ENTIDADES_FIDUCIARIOS
  add constraint PK_ENT_FIDUCIARIO primary key (ID_ENTIDAD_FIDUCIARIO)
  using index 
  tablespace CBA1_IDX
  pctfree 10
  initrans 2
  maxtrans 255
  storage
  (
    initial 64K
    next 64K
    minextents 1
    maxextents unlimited
  );
alter table IPJ.T_ENTIDADES_FIDUCIARIOS
  add constraint FK_ENTFIDREP_INTEG foreign key (ID_INTEGRANTE_REPRESENTANTE)
  references IPJ.T_INTEGRANTES (ID_INTEGRANTE);
alter table IPJ.T_ENTIDADES_FIDUCIARIOS
  add constraint FK_ENTFIDREP_TREPRES foreign key (ID_TIPO_REPRES)
  references IPJ.T_TIPOS_REPRES (ID_TIPO_REPRES);
alter table IPJ.T_ENTIDADES_FIDUCIARIOS
  add constraint FK_ENTFIDUCIARIO_ENT foreign key (ID_TRAMITE_IPJ, ID_LEGAJO)
  references IPJ.T_ENTIDADES (ID_TRAMITE_IPJ, ID_LEGAJO);
alter table IPJ.T_ENTIDADES_FIDUCIARIOS
  add constraint FK_ENTFIDUCIARIO_INTEG foreign key (ID_INTEGRANTE)
  references IPJ.T_INTEGRANTES (ID_INTEGRANTE);

