create table IPJ.T_ENTIDADES_TRUBRO_IPJ
(
  id_tramite_ipj    NUMBER(10) not null,
  id_legajo         NUMBER(15) not null,
  id_tipo_rubro_ipj NUMBER(10) not null,
  fecha_alta        DATE,
  fecha_baja        DATE
)
tablespace CBA1_DATA
  pctfree 10
  initrans 1
  maxtrans 255
  storage
  (
    initial 80K
    next 1M
    minextents 1
    maxextents unlimited
  )
compress;
alter table IPJ.T_ENTIDADES_TRUBRO_IPJ
  add constraint PK_ENTIDAD_TRUBROS_IPJ primary key (ID_TRAMITE_IPJ, ID_LEGAJO, ID_TIPO_RUBRO_IPJ)
  using index 
  tablespace CBA1_IDX
  pctfree 10
  initrans 2
  maxtrans 255
  storage
  (
    initial 64K
    next 1M
    minextents 1
    maxextents unlimited
  );
alter table IPJ.T_ENTIDADES_TRUBRO_IPJ
  add constraint FK_ENTRUBIPJ_ENT foreign key (ID_TRAMITE_IPJ, ID_LEGAJO)
  references IPJ.T_ENTIDADES (ID_TRAMITE_IPJ, ID_LEGAJO);
alter table IPJ.T_ENTIDADES_TRUBRO_IPJ
  add constraint FK_ENTRUBIPJ_RUBIPJ foreign key (ID_TIPO_RUBRO_IPJ)
  references IPJ.T_TIPOS_RUBROS_IPJ (ID_TIPO_RUBRO_IPJ);

