create table IPJ.T_ENTIDADES_SOCIOS_COPRO
(
  id_entidad_socio NUMBER(10) not null,
  id_integrante    NUMBER(10) not null,
  fec_alta         DATE not null,
  fec_baja         DATE,
  borrador         VARCHAR2(1)
)
tablespace CBA1_DATA
  pctfree 10
  initrans 1
  maxtrans 255
  storage
  (
    initial 64K
    next 64K
    minextents 1
    maxextents unlimited
  )
compress;
alter table IPJ.T_ENTIDADES_SOCIOS_COPRO
  add constraint PK_ENT_SOCIOS_COPRO primary key (ID_ENTIDAD_SOCIO, ID_INTEGRANTE, FEC_ALTA)
  using index 
  tablespace CBA1_IDX
  pctfree 10
  initrans 2
  maxtrans 255
  storage
  (
    initial 64K
    next 64K
    minextents 1
    maxextents unlimited
  );

