create table IPJ.T_ESTADOS_ENTIDADES
(
  id_estado_entidad VARCHAR2(2) not null,
  estado_entidad    VARCHAR2(50) not null
)
tablespace CBA1_DATA
  pctfree 10
  initrans 1
  maxtrans 255
  storage
  (
    initial 64K
    next 64K
    minextents 1
    maxextents unlimited
  )
compress;
alter table IPJ.T_ESTADOS_ENTIDADES
  add constraint PK_T_ESTADOS_ENTIDADES primary key (ID_ESTADO_ENTIDAD)
  using index 
  tablespace CBA1_IDX
  pctfree 10
  initrans 2
  maxtrans 255
  storage
  (
    initial 64K
    next 64K
    minextents 1
    maxextents unlimited
  );

