create table IPJ.T_MIGRACION_LEGAJOS
(
  campo0 NUMBER(15),
  campo1 VARCHAR2(50),
  campo2 VARCHAR2(50),
  campo3 VARCHAR2(50),
  campo4 VARCHAR2(50),
  campo5 VARCHAR2(50),
  campo6 VARCHAR2(50)
)
tablespace CBA1_DATA
  pctfree 10
  initrans 1
  maxtrans 255
  storage
  (
    initial 80K
    next 64K
    minextents 1
    maxextents unlimited
  )
compress;

