create table IPJ.T_NOTIFICACION
(
  id_notificacion      NUMBER(5) not null,
  n_notificacion       VARCHAR2(3000),
  id_tipo_notificacion NUMBER(5)
)
tablespace CBA1_DATA
  pctfree 10
  initrans 1
  maxtrans 255
  storage
  (
    initial 80K
    next 1M
    minextents 1
    maxextents unlimited
  )
compress;
alter table IPJ.T_NOTIFICACION
  add constraint PK_ID_NOTIFICACION primary key (ID_NOTIFICACION)
  using index 
  tablespace CBA1_IDX
  pctfree 10
  initrans 2
  maxtrans 255
  storage
  (
    initial 64K
    next 1M
    minextents 1
    maxextents unlimited
  );
alter table IPJ.T_NOTIFICACION
  add constraint FK_ID_TIPO_NOTIF foreign key (ID_TIPO_NOTIFICACION)
  references IPJ.T_TIPO_NOTIFICACION (ID_TIPO_NOTIFICACION);

