create table IPJ.T_OL_ENTIDAD_DOCUMENTOS
(
  codigo_online           NUMBER(20),
  id_documento            NUMBER(10),
  n_documento             VARCHAR2(50) not null,
  observacion             VARCHAR2(2000),
  cuil_usr                VARCHAR2(20),
  fecha_alta              DATE,
  id_tipo_documento_cdd   NUMBER(5) not null,
  fecha_notarial          DATE,
  cuil_escrib_orig        VARCHAR2(20),
  nro_escribania_orig     VARCHAR2(50),
  id_cargo_escrib_orig    NUMBER(5),
  n_cargo_escrib_orig     VARCHAR2(50),
  detalle_escribania_orig VARCHAR2(500)
)
tablespace CBA1_DATA
  pctfree 10
  initrans 1
  maxtrans 255
  storage
  (
    initial 64K
    next 64K
    minextents 1
    maxextents unlimited
  )
compress;

