create table IPJ.T_OL_ENTIDAD_SOCIOS_ACCIONES
(
  codigo_online        NUMBER(20) not null,
  id_ol_socio          NUMBER(10) not null,
  id_ol_entidad_accion NUMBER(5) not null,
  cantidad             NUMBER(16),
  id_tramite_ipj       NUMBER(10),
  id_legajo            NUMBER(15)
)
tablespace CBA1_DATA
  pctfree 10
  initrans 1
  maxtrans 255
  storage
  (
    initial 80K
    next 1M
    minextents 1
    maxextents unlimited
  )
compress;
alter table IPJ.T_OL_ENTIDAD_SOCIOS_ACCIONES
  add constraint PK_OL_ENT_SOC_ACC primary key (CODIGO_ONLINE, ID_OL_SOCIO, ID_OL_ENTIDAD_ACCION)
  using index 
  tablespace CBA1_IDX
  pctfree 10
  initrans 2
  maxtrans 255
  storage
  (
    initial 64K
    next 1M
    minextents 1
    maxextents unlimited
  );
alter table IPJ.T_OL_ENTIDAD_SOCIOS_ACCIONES
  add constraint FK_OL_ENTSOCACC_ENTACC foreign key (CODIGO_ONLINE, ID_OL_ENTIDAD_ACCION)
  references IPJ.T_OL_ENTIDAD_ACCIONES (CODIGO_ONLINE, ID_OL_ENTIDAD_ACCION);
alter table IPJ.T_OL_ENTIDAD_SOCIOS_ACCIONES
  add constraint FK_OL_ENTSOCACC_ENTSOC foreign key (CODIGO_ONLINE, ID_OL_SOCIO)
  references IPJ.T_OL_ENTIDAD_SOCIOS (CODIGO_ONLINE, ID_OL_SOCIO);

