create table IPJ.T_OL_DENUNCIAS_MEDIOS
(
  codigo_online NUMBER(20) not null,
  medio_prueba  VARCHAR2(100) not null,
  observacion   VARCHAR2(4000)
)
tablespace CBA1_DATA
  pctfree 10
  initrans 1
  maxtrans 255
  storage
  (
    initial 64K
    next 1M
    minextents 1
    maxextents unlimited
  )
compress;
alter table IPJ.T_OL_DENUNCIAS_MEDIOS
  add constraint PK_OL_DENUNMED primary key (CODIGO_ONLINE, MEDIO_PRUEBA)
  using index 
  tablespace CBA1_IDX
  pctfree 10
  initrans 2
  maxtrans 255
  storage
  (
    initial 64K
    next 1M
    minextents 1
    maxextents unlimited
  );
alter table IPJ.T_OL_DENUNCIAS_MEDIOS
  add constraint FK_OL_DENUNMED_DENUNCIA foreign key (CODIGO_ONLINE)
  references IPJ.T_OL_DENUNCIAS (CODIGO_ONLINE);

