create table IPJ.T_PROTOCOLOS_JURIDICO
(
  id_prot_jur VARCHAR2(2) not null,
  n_prot_jur  VARCHAR2(1000),
  numerador   NUMBER(15)
)
tablespace CBA1_DATA
  pctfree 10
  initrans 1
  maxtrans 255
  storage
  (
    initial 64K
    next 64K
    minextents 1
    maxextents unlimited
  )
compress;
alter table IPJ.T_PROTOCOLOS_JURIDICO
  add constraint PK_PROT_JUR primary key (ID_PROT_JUR)
  using index 
  tablespace CBA1_IDX
  pctfree 10
  initrans 2
  maxtrans 255
  storage
  (
    initial 64K
    next 64K
    minextents 1
    maxextents unlimited
  );

