create table IPJ.T_SOLICITUDES
(
  id_solicitud        NUMBER(15) not null,
  fecha_inicio        DATE,
  fecha_fin           DATE,
  cuit                VARCHAR2(20),
  cuil_solicitante    VARCHAR2(20),
  id_estado_solicitud NUMBER(10),
  id_tipo_solicitud   NUMBER(5),
  id_legajo           NUMBER(15)
)
tablespace CBA1_DATA
  pctfree 10
  initrans 1
  maxtrans 255
  storage
  (
    initial 80K
    next 64K
    minextents 1
    maxextents unlimited
  )
compress;
alter table IPJ.T_SOLICITUDES
  add constraint PK_T_SOLICITUDES primary key (ID_SOLICITUD)
  using index 
  tablespace CBA1_IDX
  pctfree 10
  initrans 2
  maxtrans 255
  storage
  (
    initial 64K
    next 64K
    minextents 1
    maxextents unlimited
  );
alter table IPJ.T_SOLICITUDES
  add constraint FK_T_ESTADOS_SOLIC foreign key (ID_ESTADO_SOLICITUD)
  references IPJ.T_ESTADO_SOLICITUD (ID_ESTADO_SOLICITUD);
alter table IPJ.T_SOLICITUDES
  add constraint FK_TIPOS_SOLICITUD foreign key (ID_TIPO_SOLICITUD)
  references IPJ.T_TIPO_SOLICITUD (ID_TIPO_SOLICITUD);
alter table IPJ.T_SOLICITUDES
  add constraint FK_T_LEGAJOS foreign key (ID_LEGAJO)
  references IPJ.T_LEGAJOS (ID_LEGAJO);

