create table IPJ.T_TEMP_MARCA_SINDICOS
(
  id_legajo        NUMBER(15) not null,
  id_tramite_ipj   NUMBER(10) not null,
  requiere_sindico VARCHAR2(1),
  cargado          VARCHAR2(2)
)
tablespace CBA1_DATA
  pctfree 10
  initrans 1
  maxtrans 255
  storage
  (
    initial 64K
    next 1M
    minextents 1
    maxextents unlimited
  );

