create table IPJ.T_TIPOS_ORDEN_DIA
(
  id_tipo_orden_dia NUMBER(6) not null,
  n_tipo_orden_dia  VARCHAR2(100),
  siglas            VARCHAR2(10),
  id_ubicacion      NUMBER(5)
)
tablespace CBA1_DATA
  pctfree 10
  initrans 1
  maxtrans 255
  storage
  (
    initial 64K
    next 64K
    minextents 1
    maxextents unlimited
  )
compress;
alter table IPJ.T_TIPOS_ORDEN_DIA
  add constraint PK_TIPOS_ORDENDIA primary key (ID_TIPO_ORDEN_DIA)
  using index 
  tablespace CBA1_IDX
  pctfree 10
  initrans 2
  maxtrans 255
  storage
  (
    initial 64K
    next 64K
    minextents 1
    maxextents unlimited
  );

