create table IPJ.T_TIPOS_NORMALIZADOR
(
  id_normalizador NUMBER(5) not null,
  n_normalizador  VARCHAR2(300) not null
)
tablespace CBA1_DATA
  pctfree 10
  initrans 1
  maxtrans 255
  storage
  (
    initial 64K
    next 1M
    minextents 1
    maxextents unlimited
  )
compress;
alter table IPJ.T_TIPOS_NORMALIZADOR
  add constraint PK_TIPOS_NORMALIZADOR primary key (ID_NORMALIZADOR)
  using index 
  tablespace CBA1_IDX
  pctfree 10
  initrans 2
  maxtrans 255
  storage
  (
    initial 64K
    next 1M
    minextents 1
    maxextents unlimited
  );

