create table IPJ.T_TIPOS_ALERTA
(
  id_tipo_alerta NUMBER(6) not null,
  n_tipo_alerta  VARCHAR2(50)
)
tablespace CBA1_DATA
  pctfree 10
  initrans 1
  maxtrans 255
  storage
  (
    initial 80K
    next 1M
    minextents 1
    maxextents unlimited
  )
compress;
alter table IPJ.T_TIPOS_ALERTA
  add constraint PK_TIPOS_ALERTA primary key (ID_TIPO_ALERTA)
  using index 
  tablespace CBA1_IDX
  pctfree 10
  initrans 2
  maxtrans 255
  storage
  (
    initial 80K
    next 1M
    minextents 1
    maxextents unlimited
  );

