create table IPJ.T_TIPOS_REPRES
(
  id_tipo_repres NUMBER(5) not null,
  n_tipo_repres  VARCHAR2(30)
)
tablespace CBA1_DATA
  pctfree 10
  initrans 1
  maxtrans 255
  storage
  (
    initial 80K
    next 1M
    minextents 1
    maxextents unlimited
  )
compress;
alter table IPJ.T_TIPOS_REPRES
  add constraint PK_TIPOS_REPRES primary key (ID_TIPO_REPRES)
  using index 
  tablespace CBA1_IDX
  pctfree 10
  initrans 2
  maxtrans 255
  storage
  (
    initial 64K
    next 1M
    minextents 1
    maxextents unlimited
  );

