create table IPJ.T_TMP_ENTIDADES_SIA
(
  denom VARCHAR2(250),
  cuit  VARCHAR2(20),
  leido CHAR(1)
)
tablespace CBA1_DATA
  pctfree 10
  initrans 1
  maxtrans 255
  storage
  (
    initial 64K
    next 64K
    minextents 1
    maxextents unlimited
  )
compress;

