create table IPJ.T_TRAMITESIPJ_ACCIONES
(
  id_tramiteipj_accion  NUMBER(10) not null,
  id_tramite_ipj        NUMBER(10) not null,
  id_tipo_accion        NUMBER(10) not null,
  id_integrante         NUMBER(10),
  id_legajo             NUMBER(10),
  id_estado             NUMBER(6),
  cuil_usuario          VARCHAR2(11) not null,
  obs_rubrica           VARCHAR2(4000),
  observacion           VARCHAR2(4000),
  id_fondo_comercio     NUMBER(10),
  fec_veeduria          DATE,
  id_documento          NUMBER(10),
  n_documento           VARCHAR2(54),
  nro_actuacion         VARCHAR2(30),
  nro_dictamen          NUMBER(6),
  id_prot_jur           VARCHAR2(2),
  nro_resolucion        NUMBER(15),
  fec_resolucion        DATE,
  fecha_dictamen        DATE,
  fecha_toma_acta       DATE,
  asociado_cuit         CHAR(1),
  id_tipo_documento_cdd NUMBER(5),
  id_prot_dig           VARCHAR2(2),
  nro_resolucion_dig    NUMBER(15),
  fec_resolucion_dig    DATE,
  anio_desde            NUMBER,
  anio_hasta            NUMBER,
  desde_const           CHAR(1)
)
tablespace CBA1_DATA
  pctfree 10
  initrans 1
  maxtrans 255
  storage
  (
    initial 64K
    next 64K
    minextents 1
    maxextents unlimited
  )
compress;
create index IPJ.IDX_TRAIPJ_ACC_ID_ESTADO on IPJ.T_TRAMITESIPJ_ACCIONES (ID_ESTADO)
  tablespace CBA1_IDX
  pctfree 10
  initrans 2
  maxtrans 255
  storage
  (
    initial 64K
    next 1M
    minextents 1
    maxextents unlimited
  );
create index IPJ.IDX_TRMT_ACC on IPJ.T_TRAMITESIPJ_ACCIONES (ID_TRAMITE_IPJ, CUIL_USUARIO, ID_ESTADO)
  tablespace CBA1_IDX
  pctfree 10
  initrans 2
  maxtrans 255
  storage
  (
    initial 64K
    next 64K
    minextents 1
    maxextents unlimited
  );
create index IPJ.IDX$$_889A0008 on IPJ.T_TRAMITESIPJ_ACCIONES (CUIL_USUARIO, ID_ESTADO, ID_TRAMITE_IPJ)
  tablespace CBA1_IDX
  pctfree 10
  initrans 2
  maxtrans 255
  storage
  (
    initial 64K
    next 1M
    minextents 1
    maxextents unlimited
  );
alter table IPJ.T_TRAMITESIPJ_ACCIONES
  add constraint PK_TRAMITESIPJ_ACCION primary key (ID_TRAMITEIPJ_ACCION, ID_TRAMITE_IPJ, ID_TIPO_ACCION)
  using index 
  tablespace CBA1_IDX
  pctfree 10
  initrans 2
  maxtrans 255
  storage
  (
    initial 64K
    next 64K
    minextents 1
    maxextents unlimited
  );
alter table IPJ.T_TRAMITESIPJ_ACCIONES
  add constraint FK_TRAACC_PROTDIG foreign key (ID_PROT_DIG)
  references IPJ.T_PROTOCOLOS_DIGITAL (ID_PROT_DIG);
alter table IPJ.T_TRAMITESIPJ_ACCIONES
  add constraint FK_TRAACC_PROTJUR foreign key (ID_PROT_JUR)
  references IPJ.T_PROTOCOLOS_JURIDICO (ID_PROT_JUR);
alter table IPJ.T_TRAMITESIPJ_ACCIONES
  add constraint FK_TRAACC_TIPOACC foreign key (ID_TIPO_ACCION)
  references IPJ.T_TIPOS_ACCIONESIPJ (ID_TIPO_ACCION);
alter table IPJ.T_TRAMITESIPJ_ACCIONES
  add constraint FK_TRAACC_TRAINTEG foreign key (ID_TRAMITE_IPJ, ID_INTEGRANTE)
  references IPJ.T_TRAMITESIPJ_INTEGRANTE (ID_TRAMITE_IPJ, ID_INTEGRANTE);
alter table IPJ.T_TRAMITESIPJ_ACCIONES
  add constraint FK_TRAACC_TRAPERS foreign key (ID_TRAMITE_IPJ, ID_LEGAJO)
  references IPJ.T_TRAMITESIPJ_PERSJUR (ID_TRAMITE_IPJ, ID_LEGAJO);
alter table IPJ.T_TRAMITESIPJ_ACCIONES
  add constraint FK_TRAACC_USUARIO foreign key (CUIL_USUARIO)
  references IPJ.T_USUARIOS (CUIL_USUARIO);

