create table IPJ.T_TRAMITESIPJ_AUTORIZ_BOE
(
  id_tramite_ipj NUMBER(10) not null,
  id_integrante  NUMBER(10) not null,
  fecha          DATE,
  fecha_baja     DATE
)
tablespace CBA1_DATA
  pctfree 10
  initrans 1
  maxtrans 255
  storage
  (
    initial 64K
    next 64K
    minextents 1
    maxextents unlimited
  )
compress;
alter table IPJ.T_TRAMITESIPJ_AUTORIZ_BOE
  add constraint PK_TRAM_AUTORIZ_BOE primary key (ID_TRAMITE_IPJ, ID_INTEGRANTE)
  using index 
  tablespace CBA1_IDX
  pctfree 10
  initrans 2
  maxtrans 255
  storage
  (
    initial 64K
    next 64K
    minextents 1
    maxextents unlimited
  );
alter table IPJ.T_TRAMITESIPJ_AUTORIZ_BOE
  add constraint FK_TRAMAUTBOE_ENT_OL foreign key (ID_TRAMITE_IPJ)
  references IPJ.T_TRAMITESIPJ (ID_TRAMITE_IPJ);
alter table IPJ.T_TRAMITESIPJ_AUTORIZ_BOE
  add constraint FK_TRAMAUTBOE_INTEG foreign key (ID_INTEGRANTE)
  references IPJ.T_INTEGRANTES (ID_INTEGRANTE);

