create table IPJ.T_USUARIOS_LEGAJO
(
  cuil_usuario     VARCHAR2(11) not null,
  fec_ausencia     DATE not null,
  id_tipo_ausencia NUMBER(5) not null,
  fec_desde        DATE,
  fec_hasta        DATE,
  cuil_responsable VARCHAR2(11)
)
tablespace CBA1_DATA
  pctfree 10
  initrans 1
  maxtrans 255
compress;
create unique index IPJ.PK_USUARIOS_LEGAJO on IPJ.T_USUARIOS_LEGAJO (CUIL_USUARIO, FEC_AUSENCIA, ID_TIPO_AUSENCIA)
  tablespace CBA1_IDX
  pctfree 10
  initrans 2
  maxtrans 255;
alter table IPJ.T_USUARIOS_LEGAJO
  add constraint USUARIOS_LEGAJO primary key (CUIL_USUARIO, FEC_AUSENCIA, ID_TIPO_AUSENCIA);
alter table IPJ.T_USUARIOS_LEGAJO
  add constraint FK_USUARIO_AUSENCIA foreign key (ID_TIPO_AUSENCIA)
  references IPJ.T_TIPOS_AUSENCIA (ID_TIPO_AUSENCIA);

